Shuhong’s Website
…
      Home

  My Funfact

Shuhong’s Website

I want to know about the Korean restaurant’ circumstance in NYC so I choose to analyze the NYC Restaurant Inspection Results dataset from the p8105.datasets.

## # A tibble: 5,106 x 7
##    boro  cuisine_descrip… critical_flag score grade violation_descr…
##    <chr> <fct>            <fct>         <int> <chr>            <dbl>
##  1 MANH… Korean           Critical         25 <NA>                NA
##  2 MANH… Korean           Critical         23 <NA>                NA
##  3 MANH… Korean           Not Critical      9 A                   NA
##  4 MANH… Korean           Not Critical      6 A                   NA
##  5 MANH… Korean           Not Critical     27 <NA>                NA
##  6 MANH… Korean           Critical         24 <NA>                NA
##  7 MANH… Korean           Critical         14 B                   NA
##  8 MANH… Korean           Critical         14 <NA>                NA
##  9 MANH… Korean           Critical          7 A                   NA
## 10 MANH… Korean           Not Critical     12 A                   NA
## # … with 5,096 more rows, and 1 more variable: inspection_date <date>
…
